…
``` r
banking_wflow <-workflow() %>%
  add_model(banking_mod) %>%
  add_recipe(banking_rec)
```

``` r
 banking_fit <- banking_wflow %>%
  fit(data = reduced_train_df)
tidy(banking_fit) 
```

    ## # A tibble: 55 × 5
    ##    term              estimate std.error statistic  p.value
    ##    <chr>                <dbl>     <dbl>     <dbl>    <dbl>
    ##  1 (Intercept)        -4.72      0.409    -11.5   1.10e-30
    ##  2 age_X.25.40.       -0.621     0.105     -5.91  3.51e- 9
    ##  3 age_X.40.65.       -0.641     0.113     -5.67  1.40e- 8
    ##  4 age_X.65.95.       -0.218     0.179     -1.22  2.22e- 1
    ##  5 job_blue.collar    -0.319     0.0811    -3.94  8.24e- 5
    ##  6 job_entrepreneur   -0.266     0.138     -1.93  5.35e- 2
    ##  7 job_housemaid      -0.505     0.152     -3.32  8.93e- 4
    ##  8 job_management     -0.147     0.0834    -1.77  7.73e- 2
    ##  9 job_retired         0.0381    0.114      0.334 7.39e- 1
    ## 10 job_self.employed  -0.309     0.123     -2.50  1.24e- 2
    ## # … with 45 more rows
…
