…
    ## ── Column specification ────────────────────────────────────────────────────────
    ## Delimiter: ";"
    ## chr (10): job, marital, education, default, housing, loan, contact, month, p...
    ## dbl  (7): age, balance, day, duration, campaign, pdays, previous

    ## 
    ## ℹ Use `spec()` to retrieve the full column specification for this data.
    ## ℹ Specify the column types or set `show_col_types = FALSE` to quiet this message.

``` r
rename(banking_train, yes=y)
```

    ## # A tibble: 45,211 × 17
    ##      age job       marital education default balance housing loan  contact   day
    ##    <dbl> <chr>     <chr>   <chr>     <chr>     <dbl> <chr>   <chr> <chr>   <dbl>
    ##  1    58 manageme… married tertiary  no         2143 yes     no    unknown     5
    ##  2    44 technici… single  secondary no           29 yes     no    unknown     5
    ##  3    33 entrepre… married secondary no            2 yes     yes   unknown     5
    ##  4    47 blue-col… married unknown   no         1506 yes     no    unknown     5
    ##  5    33 unknown   single  unknown   no            1 no      no    unknown     5
    ##  6    35 manageme… married tertiary  no          231 yes     no    unknown     5
    ##  7    28 manageme… single  tertiary  no          447 yes     yes   unknown     5
    ##  8    42 entrepre… divorc… tertiary  yes           2 yes     no    unknown     5
    ##  9    58 retired   married primary   no          121 yes     no    unknown     5
    ## 10    43 technici… single  secondary no          593 yes     no    unknown     5
    ## # … with 45,201 more rows, and 7 more variables: month <chr>, duration <dbl>,
    ## #   campaign <dbl>, pdays <dbl>, previous <dbl>, poutcome <chr>, yes <chr>
…
