Client Behavior Prediction Model
…
Fitting it all together

We applied our recipe into a workflow and fitted it all into a model.

 banking_fit <- banking_wflow %>%
  fit(data = reduced_train_df)

## # A tibble: 57 × 5
##    term              estimate std.error statistic  p.value
##    <chr>                <dbl>     <dbl>     <dbl>    <dbl>
##  1 (Intercept)       -5.05       0.434   -11.6    2.84e-31
##  2 age_X.25.40.      -0.603      0.107    -5.64   1.75e- 8
##  3 age_X.40.65.      -0.601      0.115    -5.23   1.66e- 7
##  4 age_X.65.95.       0.00493    0.178     0.0277 9.78e- 1
##  5 job_blue.collar   -0.272      0.0818   -3.33   8.70e- 4
##  6 job_entrepreneur  -0.339      0.142    -2.38   1.72e- 2
##  7 job_housemaid     -0.362      0.153    -2.37   1.80e- 2
##  8 job_management    -0.121      0.0839   -1.45   1.48e- 1
##  9 job_retired        0.0634     0.115     0.551  5.81e- 1
## 10 job_self.employed -0.245      0.125    -1.96   5.02e- 2
## # … with 47 more rows
…
